Exploratory Data Analysis
…
After, we would then want to evaluate some different models, to identify the best one that can be used to predict the probability of someone developing prediabetes or diabetes. Different types of models will be evaluated since we want to create one that is accurate and is able to perform well on new data we provide, for example a different year of the survey. Ideally, a fit model would have lower error metrics and high accuracy.

Data Import/Clean Up

Will first put some code for our needed packages:

suppressPackageStartupMessages(library(tidyverse))

Let’s import the data:

diabetes_data_df <- read.csv("~/ST558 Repo/Final Project/diabetes_binary_health_indicators_BRFSS2015.csv", header = TRUE)
diabetes_data <- as_tibble(diabetes_data_df) #convert to a tibble, likely needed later
diabetes_data

# A tibble: 253,680 × 22
   Diabetes_binary HighBP HighChol CholCheck   BMI Smoker Stroke
             <dbl>  <dbl>    <dbl>     <dbl> <dbl>  <dbl>  <dbl>
 1               0      1        1         1    40      1      0
 2               0      0        0         0    25      1      0
 3               0      1        1         1    28      0      0
 4               0      1        0         1    27      0      0
 5               0      1        1         1    24      0      0
 6               0      1        1         1    25      1      0
 7               0      1        0         1    30      1      0
 8               0      1        1         1    25      1      0
 9               1      1        1         1    30      1      0
10               0      0        0         1    24      0      0
# ℹ 253,670 more rows
# ℹ 15 more variables: HeartDiseaseorAttack <dbl>, PhysActivity <dbl>,
#   Fruits <dbl>, Veggies <dbl>, HvyAlcoholConsump <dbl>, AnyHealthcare <dbl>,
#   NoDocbcCost <dbl>, GenHlth <dbl>, MentHlth <dbl>, PhysHlth <dbl>,
#   DiffWalk <dbl>, Sex <dbl>, Age <dbl>, Education <dbl>, Income <dbl>
…
str(diabetes_summarize)

tibble [253,680 × 5] (S3: tbl_df/tbl/data.frame)
 $ diabetes   : Factor w/ 2 levels "No","Yes": 1 1 1 1 1 1 1 1 2 1 ...
 $ veggies    : Factor w/ 2 levels "No","Yes": 2 1 1 2 2 2 1 2 2 2 ...
 $ exercise   : Factor w/ 2 levels "No","Yes": 1 2 1 2 2 2 1 2 1 1 ...
 $ alcohol_use: Factor w/ 2 levels "No","Yes": 1 1 1 1 1 1 1 1 1 1 ...
 $ bmi        : Ord.factor w/ 6 levels "Underweight"<..: 5 3 3 3 2 3 4 3 4 2 ...

diabetes_summarize

# A tibble: 253,680 × 5
   diabetes veggies exercise alcohol_use bmi            
   <fct>    <fct>   <fct>    <fct>       <ord>          
 1 No       Yes     No       No          Class 2 Obesity
 2 No       No      Yes      No          Overweight     
 3 No       No      No       No          Overweight     
 4 No       Yes     Yes      No          Overweight     
 5 No       Yes     Yes      No          Healthy Weight 
 6 No       Yes     Yes      No          Overweight     
 7 No       No      No       No          Class 1 Obesity
 8 No       Yes     Yes      No          Overweight     
 9 Yes      Yes     No       No          Class 1 Obesity
10 No       Yes     No       No          Healthy Weight 
# ℹ 253,670 more rows
…
