Modeling Diabetes
…
Loading Packages and Data

suppressPackageStartupMessages(library(tidyverse))
suppressPackageStartupMessages(library(tidymodels))
suppressPackageStartupMessages(library(yardstick))
suppressPackageStartupMessages(library(tibble))
suppressPackageStartupMessages(library(bonsai))
suppressPackageStartupMessages(library(partykit))

diabetes_data_df <- read.csv("~/ST558 Repo/Final Project/diabetes_binary_health_indicators_BRFSS2015.csv", header = TRUE)
diabetes_data <- as_tibble(diabetes_data_df) #convert to a tibble, likely needed later
diabetes_data

# A tibble: 253,680 × 22
   Diabetes_binary HighBP HighChol CholCheck   BMI Smoker Stroke
             <dbl>  <dbl>    <dbl>     <dbl> <dbl>  <dbl>  <dbl>
 1               0      1        1         1    40      1      0
 2               0      0        0         0    25      1      0
 3               0      1        1         1    28      0      0
 4               0      1        0         1    27      0      0
 5               0      1        1         1    24      0      0
 6               0      1        1         1    25      1      0
 7               0      1        0         1    30      1      0
 8               0      1        1         1    25      1      0
 9               1      1        1         1    30      1      0
10               0      0        0         1    24      0      0
# ℹ 253,670 more rows
# ℹ 15 more variables: HeartDiseaseorAttack <dbl>, PhysActivity <dbl>,
#   Fruits <dbl>, Veggies <dbl>, HvyAlcoholConsump <dbl>, AnyHealthcare <dbl>,
#   NoDocbcCost <dbl>, GenHlth <dbl>, MentHlth <dbl>, PhysHlth <dbl>,
#   DiffWalk <dbl>, Sex <dbl>, Age <dbl>, Education <dbl>, Income <dbl>
…
diabetes_model_data

# A tibble: 253,680 × 5
   diabetes veggies exercise alcohol_use bmi            
   <fct>    <fct>   <fct>    <fct>       <fct>          
 1 No       Yes     No       No          Class 2 Obesity
 2 No       No      Yes      No          Overweight     
 3 No       No      No       No          Overweight     
 4 No       Yes     Yes      No          Overweight     
 5 No       Yes     Yes      No          Healthy Weight 
 6 No       Yes     Yes      No          Overweight     
 7 No       No      No       No          Class 1 Obesity
 8 No       Yes     Yes      No          Overweight     
 9 Yes      Yes     No       No          Class 1 Obesity
10 No       Yes     No       No          Healthy Weight 
# ℹ 253,670 more rows
…
predict_lr

# A tibble: 76,104 × 7
   .pred_No .pred_Yes diabetes veggies exercise alcohol_use bmi            
      <dbl>     <dbl> <fct>    <fct>   <fct>    <fct>       <fct>          
 1    0.877    0.123  No       No      Yes      No          Overweight     
 2    0.814    0.186  No       No      No       No          Overweight     
 3    0.753    0.247  Yes      Yes     No       No          Class 1 Obesity
 4    0.918    0.0822 No       Yes     No       No          Healthy Weight 
 5    0.753    0.247  No       Yes     No       No          Class 1 Obesity
 6    0.843    0.157  Yes      Yes     No       No          Overweight     
 7    0.833    0.167  No       Yes     Yes      No          Class 1 Obesity
 8    0.901    0.0989 No       No      No       No          Healthy Weight 
 9    0.843    0.157  No       Yes     No       No          Overweight     
10    0.833    0.167  No       Yes     Yes      No          Class 1 Obesity
# ℹ 76,094 more rows

predict_tree

# A tibble: 76,104 × 7
   .pred_No .pred_Yes diabetes veggies exercise alcohol_use bmi            
      <dbl>     <dbl> <fct>    <fct>   <fct>    <fct>       <fct>          
 1    0.865    0.135  No       No      Yes      No          Overweight     
 2    0.814    0.186  No       No      No       No          Overweight     
 3    0.754    0.246  Yes      Yes     No       No          Class 1 Obesity
 4    0.900    0.0999 No       Yes     No       No          Healthy Weight 
 5    0.754    0.246  No       Yes     No       No          Class 1 Obesity
 6    0.839    0.161  Yes      Yes     No       No          Overweight     
 7    0.830    0.170  No       Yes     Yes      No          Class 1 Obesity
 8    0.900    0.0999 No       No      No       No          Healthy Weight 
 9    0.839    0.161  No       Yes     No       No          Overweight     
10    0.830    0.170  No       Yes     Yes      No          Class 1 Obesity
# ℹ 76,094 more rows

predict_rf

# A tibble: 76,104 × 7
   .pred_No .pred_Yes diabetes veggies exercise alcohol_use bmi            
      <dbl>     <dbl> <fct>    <fct>   <fct>    <fct>       <fct>          
 1    0.868     0.132 No       No      Yes      No          Overweight     
 2    0.817     0.183 No       No      No       No          Overweight     
 3    0.754     0.246 Yes      Yes     No       No          Class 1 Obesity
 4    0.900     0.100 No       Yes     No       No          Healthy Weight 
 5    0.754     0.246 No       Yes     No       No          Class 1 Obesity
 6    0.839     0.161 Yes      Yes     No       No          Overweight     
 7    0.829     0.171 No       Yes     Yes      No          Class 1 Obesity
 8    0.893     0.107 No       No      No       No          Healthy Weight 
 9    0.839     0.161 No       Yes     No       No          Overweight     
10    0.829     0.171 No       Yes     Yes      No          Class 1 Obesity
# ℹ 76,094 more rows
…
